{
  "updated_at": "2018-06-26T13:31:53-03:00",
  "total_ordered": 100,
  "tags": [],
  "sync_status": "SYNCED",
  "status": {
    "type": "DELIVERED",
    "label": "Completo (entregue) (SkyHub)",
    "code": "complete"
  },
  "shipping_method": "Correios PAC",
  "shipping_cost": 0,
  "shipping_carrier": "",
  "shipping_address": {
    "street": "Rua Sacadura Cabral",
    "secondary_phone": "21 3722-3902",
    "region": "RJ",
    "reference": null,
    "postcode": "20081262",
    "phone": "21 3722-3902",
    "number": "130",
    "neighborhood": "Centro",
    "full_name": "Daiane Oliveira",
    "detail": "foo",
    "country": "BR",
    "complement": null,
    "city": "Rio de Janeiro"
  },
  "shipped_date": "2018-06-26T16:38:11.358000",
  "shipments": [
    {
      "tracks": [
        {
          "url": "www.Transportadora.com.br",
          "method": "Transportadora",
          "code": "BR1321830198302DR",
          "carrier": "Daiane"
        }
      ],
      "items": [
        {
          "sku": "testedaiane-01",
          "qty": 1
        }
      ],
      "code": "Submarino-1530030713407"
    }
  ],
  "placed_at": "2018-06-26T13:31:53-03:00",
  "payments": [
    {
      "value": 100,
      "status": null,
      "parcels": 1,
      "method": "skyhub_payment",
      "description": "Skyhub"
    }
  ],
  "items": [
    {
      "special_price": 100,
      "qty": 1,
      "product_id": "testedaiane",
      "original_price": 100,
      "name": "Geladeira Consul Frost Free",
      "id": "testedaiane-01"
    }
  ],
  "invoices": [
    {
      "number": "999999999",
      "line": "999",
      "key": "99999999999999999999999999999999999999999999",
      "issue_date": "2018-06-26T13:36:06-03:00"
    }
  ],
  "interest": 0,
  "import_info": {
    "ss_name": "Submarino",
    "remote_id": null,
    "remote_code": "1530030713407"
  },
  "estimated_delivery_shift": null,
  "estimated_delivery": "2018-02-10T22:00:00-02:00",
  "discount": 0,
  "customer": {
    "vat_number": "78732371683",
    "phones": [
      "21 3722-3902",
      "21 3722-3902"
    ],
    "name": "Daiane Oliveira",
    "gender": "male",
    "email": "daiane@skyhub.com.br",
    "date_of_birth": "1998-01-25"
  },
  "code": "Submarino-1530030713407",
  "channel": "Submarino",
  "calculation_type": null,
  "billing_address": {
    "street": "Rua Fidencio Ramos",
    "secondary_phone": "21 3722-3902",
    "region": "RJ",
    "reference": null,
    "postcode": "04551101",
    "phone": "21 3722-3902",
    "number": "302",
    "neighborhood": "Centro",
    "full_name": "Daiane Oliveira",
    "detail": "foo",
    "country": "BR",
    "complement": null,
    "city": "Rio de Janeiro"
  },
  "approved_date": "2018-06-26T16:34:17.740000"
}
